Daily counts of values at or above a threshold — monitor_dailyThreshold • AirMonitor
…
    Examples

library(AirMonitor)

# Hours at MODERATE or above
Carmel_Valley %>%
  monitor_dailyThreshold("Moderate") %>%
  monitor_getData()
#> # A tibble: 24 × 2
#>    datetime            a9572a904a4ed46d_840060530002
#>    <dttm>                                      <int>
#>  1 2016-07-22 00:00:00                             0
#>  2 2016-07-23 00:00:00                             9
#>  3 2016-07-24 00:00:00                            13
#>  4 2016-07-25 00:00:00                            24
#>  5 2016-07-26 00:00:00                            19
#>  6 2016-07-27 00:00:00                            11
#>  7 2016-07-28 00:00:00                             7
#>  8 2016-07-29 00:00:00                             5
#>  9 2016-07-30 00:00:00                             9
#> 10 2016-07-31 00:00:00                            19
#> # ℹ 14 more rows

# Hours at MODERATE or above with the 2024 updated NAAQS
Carmel_Valley %>%
  monitor_dailyThreshold("Moderate", NAAQS = "PM2.5_2024") %>%
  monitor_getData()
#> # A tibble: 24 × 2
#>    datetime            a9572a904a4ed46d_840060530002
#>    <dttm>                                      <int>
#>  1 2016-07-22 00:00:00                             0
#>  2 2016-07-23 00:00:00                             9
#>  3 2016-07-24 00:00:00                            13
#>  4 2016-07-25 00:00:00                            24
#>  5 2016-07-26 00:00:00                            19
#>  6 2016-07-27 00:00:00                            11
#>  7 2016-07-28 00:00:00                             7
#>  8 2016-07-29 00:00:00                             5
#>  9 2016-07-30 00:00:00                             9
#> 10 2016-07-31 00:00:00                            19
#> # ℹ 14 more rows

# Hours at UNHEALTHY or above
Carmel_Valley %>%
  monitor_dailyThreshold("Unhealthy") %>%
  monitor_getData()
#> # A tibble: 24 × 2
#>    datetime            a9572a904a4ed46d_840060530002
#>    <dttm>                                      <int>
#>  1 2016-07-22 00:00:00                             0
#>  2 2016-07-23 00:00:00                             0
#>  3 2016-07-24 00:00:00                             0
#>  4 2016-07-25 00:00:00                             0
#>  5 2016-07-26 00:00:00                            14
#>  6 2016-07-27 00:00:00                             1
#>  7 2016-07-28 00:00:00                             1
#>  8 2016-07-29 00:00:00                             0
#>  9 2016-07-30 00:00:00                             0
#> 10 2016-07-31 00:00:00                             5
#> # ℹ 14 more rows
…
