Create daily statistics for each monitor in an mts_monitor object — monitor_dailyStatistic • AirMonitor
…
When dayBoundary = "LST", the returned monitor$data$datetime
time axis will be defined in "UTC" with times as they appear in standard
time in the local timezone. These days will be one hour off from clock
time during DST but every day will consist of 24 hours.

    Examples

library(AirMonitor)

Carmel_Valley %>%
  monitor_dailyStatistic(max) %>%
  monitor_getData()
#> # A tibble: 24 × 2
#>    datetime            a9572a904a4ed46d_840060530002
#>    <dttm>                                      <dbl>
#>  1 2016-07-22 00:00:00                             7
#>  2 2016-07-23 00:00:00                            17
#>  3 2016-07-24 00:00:00                            30
#>  4 2016-07-25 00:00:00                            32
#>  5 2016-07-26 00:00:00                           265
#>  6 2016-07-27 00:00:00                            56
#>  7 2016-07-28 00:00:00                            58
#>  8 2016-07-29 00:00:00                            44
#>  9 2016-07-30 00:00:00                            36
#> 10 2016-07-31 00:00:00                            84
#> # … with 14 more rows

Carmel_Valley %>%
  monitor_dailyStatistic(min) %>%
  monitor_getData()
#> # A tibble: 24 × 2
#>    datetime            a9572a904a4ed46d_840060530002
#>    <dttm>                                      <dbl>
#>  1 2016-07-22 00:00:00                             0
#>  2 2016-07-23 00:00:00                             0
#>  3 2016-07-24 00:00:00                             0
#>  4 2016-07-25 00:00:00                             9
#>  5 2016-07-26 00:00:00                             2
#>  6 2016-07-27 00:00:00                             1
#>  7 2016-07-28 00:00:00                             0
#>  8 2016-07-29 00:00:00                             1
#>  9 2016-07-30 00:00:00                             0
#> 10 2016-07-31 00:00:00                             6
#> # … with 14 more rows
…
